<?xml version="1.0" ?>
<VTKFile type="Collection" version="0.1" byte_order="LittleEndian">
  <Collection>
    <DataSet timestep="1e-11" file="fields_0001.vti"/>
    <DataSet timestep="2e-11" file="fields_0002.vti"/>
    <DataSet timestep="3e-11" file="fields_0003.vti"/>
    <DataSet timestep="4e-11" file="fields_0004.vti"/>
    <DataSet timestep="4.9999999999999995e-11" file="fields_0005.vti"/>
    <DataSet timestep="6e-11" file="fields_0006.vti"/>
    <DataSet timestep="7e-11" file="fields_0007.vti"/>
    <DataSet timestep="8.000000000000001e-11" file="fields_0008.vti"/>
    <DataSet timestep="9.000000000000001e-11" file="fields_0009.vti"/>
    <DataSet timestep="1.0000000000000002e-10" file="fields_0010.vti"/>
    <DataSet timestep="1.1000000000000002e-10" file="fields_0011.vti"/>
    <DataSet timestep="1.2000000000000003e-10" file="fields_0012.vti"/>
    <DataSet timestep="1.3000000000000002e-10" file="fields_0013.vti"/>
    <DataSet timestep="1.4e-10" file="fields_0014.vti"/>
    <DataSet timestep="1.5e-10" file="fields_0015.vti"/>
    <DataSet timestep="1.6e-10" file="fields_0016.vti"/>
    <DataSet timestep="1.6999999999999998e-10" file="fields_0017.vti"/>
    <DataSet timestep="1.7999999999999997e-10" file="fields_0018.vti"/>
    <DataSet timestep="1.8999999999999996e-10" file="fields_0019.vti"/>
    <DataSet timestep="1.9999999999999996e-10" file="fields_0020.vti"/>
    <DataSet timestep="2.0999999999999995e-10" file="fields_0021.vti"/>
    <DataSet timestep="2.1999999999999994e-10" file="fields_0022.vti"/>
    <DataSet timestep="2.2999999999999993e-10" file="fields_0023.vti"/>
    <DataSet timestep="2.3999999999999995e-10" file="fields_0024.vti"/>
    <DataSet timestep="2.4999999999999996e-10" file="fields_0025.vti"/>
    <DataSet timestep="2.6e-10" file="fields_0026.vti"/>
    <DataSet timestep="2.7e-10" file="fields_0027.vti"/>
    <DataSet timestep="2.8e-10" file="fields_0028.vti"/>
    <DataSet timestep="2.9000000000000003e-10" file="fields_0029.vti"/>
    <DataSet timestep="3.0000000000000005e-10" file="fields_0030.vti"/>
    <DataSet timestep="3.1000000000000007e-10" file="fields_0031.vti"/>
    <DataSet timestep="3.200000000000001e-10" file="fields_0032.vti"/>
    <DataSet timestep="3.300000000000001e-10" file="fields_0033.vti"/>
    <DataSet timestep="3.400000000000001e-10" file="fields_0034.vti"/>
    <DataSet timestep="3.5000000000000014e-10" file="fields_0035.vti"/>
    <DataSet timestep="3.6000000000000015e-10" file="fields_0036.vti"/>
    <DataSet timestep="3.7000000000000017e-10" file="fields_0037.vti"/>
    <DataSet timestep="3.800000000000002e-10" file="fields_0038.vti"/>
    <DataSet timestep="3.900000000000002e-10" file="fields_0039.vti"/>
    <DataSet timestep="4.000000000000002e-10" file="fields_0040.vti"/>
    <DataSet timestep="4.1000000000000024e-10" file="fields_0041.vti"/>
    <DataSet timestep="4.2000000000000026e-10" file="fields_0042.vti"/>
    <DataSet timestep="4.3000000000000027e-10" file="fields_0043.vti"/>
    <DataSet timestep="4.400000000000003e-10" file="fields_0044.vti"/>
    <DataSet timestep="4.500000000000003e-10" file="fields_0045.vti"/>
    <DataSet timestep="4.600000000000003e-10" file="fields_0046.vti"/>
    <DataSet timestep="4.700000000000003e-10" file="fields_0047.vti"/>
    <DataSet timestep="4.800000000000003e-10" file="fields_0048.vti"/>
    <DataSet timestep="4.900000000000003e-10" file="fields_0049.vti"/>
    <DataSet timestep="5.000000000000002e-10" file="fields_0050.vti"/>
    <DataSet timestep="5.100000000000002e-10" file="fields_0051.vti"/>
    <DataSet timestep="5.200000000000002e-10" file="fields_0052.vti"/>
    <DataSet timestep="5.300000000000001e-10" file="fields_0053.vti"/>
    <DataSet timestep="5.400000000000001e-10" file="fields_0054.vti"/>
    <DataSet timestep="5.500000000000001e-10" file="fields_0055.vti"/>
    <DataSet timestep="5.6e-10" file="fields_0056.vti"/>
    <DataSet timestep="5.7e-10" file="fields_0057.vti"/>
    <DataSet timestep="5.8e-10" file="fields_0058.vti"/>
    <DataSet timestep="5.899999999999999e-10" file="fields_0059.vti"/>
    <DataSet timestep="5.999999999999999e-10" file="fields_0060.vti"/>
    <DataSet timestep="6.099999999999999e-10" file="fields_0061.vti"/>
    <DataSet timestep="6.199999999999998e-10" file="fields_0062.vti"/>
    <DataSet timestep="6.299999999999998e-10" file="fields_0063.vti"/>
    <DataSet timestep="6.399999999999998e-10" file="fields_0064.vti"/>
    <DataSet timestep="6.499999999999997e-10" file="fields_0065.vti"/>
    <DataSet timestep="6.599999999999997e-10" file="fields_0066.vti"/>
    <DataSet timestep="6.699999999999997e-10" file="fields_0067.vti"/>
    <DataSet timestep="6.799999999999996e-10" file="fields_0068.vti"/>
    <DataSet timestep="6.899999999999996e-10" file="fields_0069.vti"/>
    <DataSet timestep="6.999999999999995e-10" file="fields_0070.vti"/>
    <DataSet timestep="7.099999999999995e-10" file="fields_0071.vti"/>
    <DataSet timestep="7.199999999999995e-10" file="fields_0072.vti"/>
    <DataSet timestep="7.299999999999994e-10" file="fields_0073.vti"/>
    <DataSet timestep="7.399999999999994e-10" file="fields_0074.vti"/>
    <DataSet timestep="7.499999999999994e-10" file="fields_0075.vti"/>
    <DataSet timestep="7.599999999999993e-10" file="fields_0076.vti"/>
    <DataSet timestep="7.699999999999993e-10" file="fields_0077.vti"/>
    <DataSet timestep="7.799999999999993e-10" file="fields_0078.vti"/>
    <DataSet timestep="7.899999999999992e-10" file="fields_0079.vti"/>
    <DataSet timestep="7.999999999999992e-10" file="fields_0080.vti"/>
    <DataSet timestep="8.099999999999992e-10" file="fields_0081.vti"/>
    <DataSet timestep="8.199999999999991e-10" file="fields_0082.vti"/>
    <DataSet timestep="8.299999999999991e-10" file="fields_0083.vti"/>
    <DataSet timestep="8.399999999999991e-10" file="fields_0084.vti"/>
    <DataSet timestep="8.49999999999999e-10" file="fields_0085.vti"/>
    <DataSet timestep="8.59999999999999e-10" file="fields_0086.vti"/>
    <DataSet timestep="8.69999999999999e-10" file="fields_0087.vti"/>
    <DataSet timestep="8.799999999999989e-10" file="fields_0088.vti"/>
    <DataSet timestep="8.899999999999989e-10" file="fields_0089.vti"/>
    <DataSet timestep="8.999999999999989e-10" file="fields_0090.vti"/>
    <DataSet timestep="9.099999999999988e-10" file="fields_0091.vti"/>
    <DataSet timestep="9.199999999999988e-10" file="fields_0092.vti"/>
    <DataSet timestep="9.299999999999988e-10" file="fields_0093.vti"/>
    <DataSet timestep="9.399999999999988e-10" file="fields_0094.vti"/>
    <DataSet timestep="9.499999999999988e-10" file="fields_0095.vti"/>
    <DataSet timestep="9.599999999999988e-10" file="fields_0096.vti"/>
    <DataSet timestep="9.699999999999987e-10" file="fields_0097.vti"/>
    <DataSet timestep="9.799999999999987e-10" file="fields_0098.vti"/>
    <DataSet timestep="9.899999999999986e-10" file="fields_0099.vti"/>
    <DataSet timestep="9.999999999999986e-10" file="fields_0100.vti"/>
    <DataSet timestep="1.0099999999999986e-09" file="fields_0101.vti"/>
    <DataSet timestep="1.0199999999999985e-09" file="fields_0102.vti"/>
    <DataSet timestep="1.0299999999999985e-09" file="fields_0103.vti"/>
    <DataSet timestep="1.0399999999999985e-09" file="fields_0104.vti"/>
    <DataSet timestep="1.0499999999999984e-09" file="fields_0105.vti"/>
    <DataSet timestep="1.0599999999999984e-09" file="fields_0106.vti"/>
    <DataSet timestep="1.0699999999999984e-09" file="fields_0107.vti"/>
    <DataSet timestep="1.0799999999999983e-09" file="fields_0108.vti"/>
    <DataSet timestep="1.0899999999999983e-09" file="fields_0109.vti"/>
    <DataSet timestep="1.0999999999999983e-09" file="fields_0110.vti"/>
    <DataSet timestep="1.1099999999999982e-09" file="fields_0111.vti"/>
    <DataSet timestep="1.1199999999999982e-09" file="fields_0112.vti"/>
    <DataSet timestep="1.1299999999999982e-09" file="fields_0113.vti"/>
    <DataSet timestep="1.1399999999999981e-09" file="fields_0114.vti"/>
    <DataSet timestep="1.149999999999998e-09" file="fields_0115.vti"/>
    <DataSet timestep="1.159999999999998e-09" file="fields_0116.vti"/>
    <DataSet timestep="1.169999999999998e-09" file="fields_0117.vti"/>
    <DataSet timestep="1.179999999999998e-09" file="fields_0118.vti"/>
    <DataSet timestep="1.189999999999998e-09" file="fields_0119.vti"/>
    <DataSet timestep="1.199999999999998e-09" file="fields_0120.vti"/>
    <DataSet timestep="1.2099999999999979e-09" file="fields_0121.vti"/>
    <DataSet timestep="1.2199999999999979e-09" file="fields_0122.vti"/>
    <DataSet timestep="1.2299999999999978e-09" file="fields_0123.vti"/>
    <DataSet timestep="1.2399999999999978e-09" file="fields_0124.vti"/>
    <DataSet timestep="1.2499999999999978e-09" file="fields_0125.vti"/>
    <DataSet timestep="1.2599999999999977e-09" file="fields_0126.vti"/>
    <DataSet timestep="1.2699999999999977e-09" file="fields_0127.vti"/>
    <DataSet timestep="1.2799999999999976e-09" file="fields_0128.vti"/>
    <DataSet timestep="1.2899999999999976e-09" file="fields_0129.vti"/>
    <DataSet timestep="1.2999999999999976e-09" file="fields_0130.vti"/>
    <DataSet timestep="1.3099999999999975e-09" file="fields_0131.vti"/>
    <DataSet timestep="1.3199999999999975e-09" file="fields_0132.vti"/>
    <DataSet timestep="1.3299999999999975e-09" file="fields_0133.vti"/>
    <DataSet timestep="1.3399999999999974e-09" file="fields_0134.vti"/>
    <DataSet timestep="1.3499999999999974e-09" file="fields_0135.vti"/>
    <DataSet timestep="1.3599999999999974e-09" file="fields_0136.vti"/>
    <DataSet timestep="1.3699999999999973e-09" file="fields_0137.vti"/>
    <DataSet timestep="1.3799999999999973e-09" file="fields_0138.vti"/>
    <DataSet timestep="1.3899999999999973e-09" file="fields_0139.vti"/>
    <DataSet timestep="1.3999999999999972e-09" file="fields_0140.vti"/>
    <DataSet timestep="1.4099999999999972e-09" file="fields_0141.vti"/>
    <DataSet timestep="1.4199999999999972e-09" file="fields_0142.vti"/>
    <DataSet timestep="1.4299999999999971e-09" file="fields_0143.vti"/>
    <DataSet timestep="1.439999999999997e-09" file="fields_0144.vti"/>
    <DataSet timestep="1.449999999999997e-09" file="fields_0145.vti"/>
    <DataSet timestep="1.459999999999997e-09" file="fields_0146.vti"/>
    <DataSet timestep="1.469999999999997e-09" file="fields_0147.vti"/>
    <DataSet timestep="1.479999999999997e-09" file="fields_0148.vti"/>
    <DataSet timestep="1.489999999999997e-09" file="fields_0149.vti"/>
    <DataSet timestep="1.4999999999999969e-09" file="fields_0150.vti"/>
    <DataSet timestep="1.5099999999999969e-09" file="fields_0151.vti"/>
    <DataSet timestep="1.5199999999999968e-09" file="fields_0152.vti"/>
    <DataSet timestep="1.5299999999999968e-09" file="fields_0153.vti"/>
    <DataSet timestep="1.5399999999999967e-09" file="fields_0154.vti"/>
    <DataSet timestep="1.5499999999999967e-09" file="fields_0155.vti"/>
    <DataSet timestep="1.5599999999999967e-09" file="fields_0156.vti"/>
    <DataSet timestep="1.5699999999999966e-09" file="fields_0157.vti"/>
    <DataSet timestep="1.5799999999999966e-09" file="fields_0158.vti"/>
    <DataSet timestep="1.5899999999999966e-09" file="fields_0159.vti"/>
    <DataSet timestep="1.5999999999999965e-09" file="fields_0160.vti"/>
    <DataSet timestep="1.6099999999999965e-09" file="fields_0161.vti"/>
    <DataSet timestep="1.6199999999999965e-09" file="fields_0162.vti"/>
    <DataSet timestep="1.6299999999999964e-09" file="fields_0163.vti"/>
    <DataSet timestep="1.6399999999999964e-09" file="fields_0164.vti"/>
    <DataSet timestep="1.6499999999999964e-09" file="fields_0165.vti"/>
    <DataSet timestep="1.6599999999999963e-09" file="fields_0166.vti"/>
    <DataSet timestep="1.6699999999999963e-09" file="fields_0167.vti"/>
    <DataSet timestep="1.6799999999999963e-09" file="fields_0168.vti"/>
    <DataSet timestep="1.6899999999999962e-09" file="fields_0169.vti"/>
    <DataSet timestep="1.6999999999999962e-09" file="fields_0170.vti"/>
    <DataSet timestep="1.7099999999999962e-09" file="fields_0171.vti"/>
    <DataSet timestep="1.7199999999999961e-09" file="fields_0172.vti"/>
    <DataSet timestep="1.729999999999996e-09" file="fields_0173.vti"/>
    <DataSet timestep="1.739999999999996e-09" file="fields_0174.vti"/>
    <DataSet timestep="1.749999999999996e-09" file="fields_0175.vti"/>
    <DataSet timestep="1.759999999999996e-09" file="fields_0176.vti"/>
    <DataSet timestep="1.769999999999996e-09" file="fields_0177.vti"/>
    <DataSet timestep="1.779999999999996e-09" file="fields_0178.vti"/>
    <DataSet timestep="1.7899999999999959e-09" file="fields_0179.vti"/>
    <DataSet timestep="1.7999999999999959e-09" file="fields_0180.vti"/>
    <DataSet timestep="1.8099999999999958e-09" file="fields_0181.vti"/>
    <DataSet timestep="1.8199999999999958e-09" file="fields_0182.vti"/>
    <DataSet timestep="1.8299999999999957e-09" file="fields_0183.vti"/>
    <DataSet timestep="1.8399999999999957e-09" file="fields_0184.vti"/>
    <DataSet timestep="1.8499999999999957e-09" file="fields_0185.vti"/>
    <DataSet timestep="1.8599999999999956e-09" file="fields_0186.vti"/>
    <DataSet timestep="1.869999999999996e-09" file="fields_0187.vti"/>
    <DataSet timestep="1.879999999999996e-09" file="fields_0188.vti"/>
    <DataSet timestep="1.889999999999996e-09" file="fields_0189.vti"/>
    <DataSet timestep="1.8999999999999963e-09" file="fields_0190.vti"/>
    <DataSet timestep="1.9099999999999965e-09" file="fields_0191.vti"/>
    <DataSet timestep="1.9199999999999967e-09" file="fields_0192.vti"/>
    <DataSet timestep="1.929999999999997e-09" file="fields_0193.vti"/>
    <DataSet timestep="1.939999999999997e-09" file="fields_0194.vti"/>
    <DataSet timestep="1.949999999999997e-09" file="fields_0195.vti"/>
    <DataSet timestep="1.9599999999999974e-09" file="fields_0196.vti"/>
    <DataSet timestep="1.9699999999999975e-09" file="fields_0197.vti"/>
    <DataSet timestep="1.9799999999999977e-09" file="fields_0198.vti"/>
    <DataSet timestep="1.989999999999998e-09" file="fields_0199.vti"/>
    <DataSet timestep="1.999999999999998e-09" file="fields_0200.vti"/>
    <DataSet timestep="2.0099999999999982e-09" file="fields_0201.vti"/>
    <DataSet timestep="2.0199999999999984e-09" file="fields_0202.vti"/>
    <DataSet timestep="2.0299999999999986e-09" file="fields_0203.vti"/>
    <DataSet timestep="2.0399999999999987e-09" file="fields_0204.vti"/>
    <DataSet timestep="2.049999999999999e-09" file="fields_0205.vti"/>
    <DataSet timestep="2.059999999999999e-09" file="fields_0206.vti"/>
    <DataSet timestep="2.0699999999999993e-09" file="fields_0207.vti"/>
    <DataSet timestep="2.0799999999999994e-09" file="fields_0208.vti"/>
    <DataSet timestep="2.0899999999999996e-09" file="fields_0209.vti"/>
    <DataSet timestep="2.0999999999999998e-09" file="fields_0210.vti"/>
    <DataSet timestep="2.11e-09" file="fields_0211.vti"/>
    <DataSet timestep="2.12e-09" file="fields_0212.vti"/>
    <DataSet timestep="2.1300000000000003e-09" file="fields_0213.vti"/>
    <DataSet timestep="2.1400000000000005e-09" file="fields_0214.vti"/>
    <DataSet timestep="2.1500000000000006e-09" file="fields_0215.vti"/>
    <DataSet timestep="2.160000000000001e-09" file="fields_0216.vti"/>
    <DataSet timestep="2.170000000000001e-09" file="fields_0217.vti"/>
    <DataSet timestep="2.180000000000001e-09" file="fields_0218.vti"/>
    <DataSet timestep="2.1900000000000013e-09" file="fields_0219.vti"/>
    <DataSet timestep="2.2000000000000015e-09" file="fields_0220.vti"/>
    <DataSet timestep="2.2100000000000017e-09" file="fields_0221.vti"/>
    <DataSet timestep="2.220000000000002e-09" file="fields_0222.vti"/>
    <DataSet timestep="2.230000000000002e-09" file="fields_0223.vti"/>
    <DataSet timestep="2.240000000000002e-09" file="fields_0224.vti"/>
    <DataSet timestep="2.2500000000000024e-09" file="fields_0225.vti"/>
    <DataSet timestep="2.2600000000000025e-09" file="fields_0226.vti"/>
    <DataSet timestep="2.2700000000000027e-09" file="fields_0227.vti"/>
    <DataSet timestep="2.280000000000003e-09" file="fields_0228.vti"/>
    <DataSet timestep="2.290000000000003e-09" file="fields_0229.vti"/>
    <DataSet timestep="2.3000000000000032e-09" file="fields_0230.vti"/>
    <DataSet timestep="2.3100000000000034e-09" file="fields_0231.vti"/>
    <DataSet timestep="2.3200000000000036e-09" file="fields_0232.vti"/>
    <DataSet timestep="2.3300000000000037e-09" file="fields_0233.vti"/>
    <DataSet timestep="2.340000000000004e-09" file="fields_0234.vti"/>
    <DataSet timestep="2.350000000000004e-09" file="fields_0235.vti"/>
    <DataSet timestep="2.3600000000000043e-09" file="fields_0236.vti"/>
    <DataSet timestep="2.3700000000000044e-09" file="fields_0237.vti"/>
    <DataSet timestep="2.3800000000000046e-09" file="fields_0238.vti"/>
    <DataSet timestep="2.3900000000000048e-09" file="fields_0239.vti"/>
    <DataSet timestep="2.400000000000005e-09" file="fields_0240.vti"/>
    <DataSet timestep="2.410000000000005e-09" file="fields_0241.vti"/>
    <DataSet timestep="2.4200000000000053e-09" file="fields_0242.vti"/>
    <DataSet timestep="2.4300000000000055e-09" file="fields_0243.vti"/>
    <DataSet timestep="2.4400000000000056e-09" file="fields_0244.vti"/>
    <DataSet timestep="2.450000000000006e-09" file="fields_0245.vti"/>
    <DataSet timestep="2.460000000000006e-09" file="fields_0246.vti"/>
    <DataSet timestep="2.470000000000006e-09" file="fields_0247.vti"/>
    <DataSet timestep="2.4800000000000063e-09" file="fields_0248.vti"/>
    <DataSet timestep="2.4900000000000065e-09" file="fields_0249.vti"/>
    <DataSet timestep="2.5000000000000067e-09" file="fields_0250.vti"/>
    <DataSet timestep="2.510000000000007e-09" file="fields_0251.vti"/>
    <DataSet timestep="2.520000000000007e-09" file="fields_0252.vti"/>
    <DataSet timestep="2.530000000000007e-09" file="fields_0253.vti"/>
    <DataSet timestep="2.5400000000000074e-09" file="fields_0254.vti"/>
    <DataSet timestep="2.5500000000000075e-09" file="fields_0255.vti"/>
    <DataSet timestep="2.5600000000000077e-09" file="fields_0256.vti"/>
    <DataSet timestep="2.570000000000008e-09" file="fields_0257.vti"/>
    <DataSet timestep="2.580000000000008e-09" file="fields_0258.vti"/>
    <DataSet timestep="2.5900000000000082e-09" file="fields_0259.vti"/>
    <DataSet timestep="2.6000000000000084e-09" file="fields_0260.vti"/>
    <DataSet timestep="2.6100000000000086e-09" file="fields_0261.vti"/>
    <DataSet timestep="2.6200000000000087e-09" file="fields_0262.vti"/>
    <DataSet timestep="2.630000000000009e-09" file="fields_0263.vti"/>
    <DataSet timestep="2.640000000000009e-09" file="fields_0264.vti"/>
    <DataSet timestep="2.6500000000000093e-09" file="fields_0265.vti"/>
    <DataSet timestep="2.6600000000000094e-09" file="fields_0266.vti"/>
    <DataSet timestep="2.6700000000000096e-09" file="fields_0267.vti"/>
    <DataSet timestep="2.6800000000000098e-09" file="fields_0268.vti"/>
    <DataSet timestep="2.69000000000001e-09" file="fields_0269.vti"/>
    <DataSet timestep="2.70000000000001e-09" file="fields_0270.vti"/>
    <DataSet timestep="2.7100000000000103e-09" file="fields_0271.vti"/>
    <DataSet timestep="2.7200000000000105e-09" file="fields_0272.vti"/>
    <DataSet timestep="2.7300000000000106e-09" file="fields_0273.vti"/>
    <DataSet timestep="2.740000000000011e-09" file="fields_0274.vti"/>
    <DataSet timestep="2.750000000000011e-09" file="fields_0275.vti"/>
    <DataSet timestep="2.760000000000011e-09" file="fields_0276.vti"/>
    <DataSet timestep="2.7700000000000113e-09" file="fields_0277.vti"/>
    <DataSet timestep="2.7800000000000115e-09" file="fields_0278.vti"/>
    <DataSet timestep="2.7900000000000117e-09" file="fields_0279.vti"/>
    <DataSet timestep="2.800000000000012e-09" file="fields_0280.vti"/>
    <DataSet timestep="2.810000000000012e-09" file="fields_0281.vti"/>
    <DataSet timestep="2.820000000000012e-09" file="fields_0282.vti"/>
    <DataSet timestep="2.8300000000000124e-09" file="fields_0283.vti"/>
    <DataSet timestep="2.8400000000000125e-09" file="fields_0284.vti"/>
    <DataSet timestep="2.8500000000000127e-09" file="fields_0285.vti"/>
    <DataSet timestep="2.860000000000013e-09" file="fields_0286.vti"/>
    <DataSet timestep="2.870000000000013e-09" file="fields_0287.vti"/>
    <DataSet timestep="2.8800000000000132e-09" file="fields_0288.vti"/>
    <DataSet timestep="2.8900000000000134e-09" file="fields_0289.vti"/>
    <DataSet timestep="2.9000000000000136e-09" file="fields_0290.vti"/>
    <DataSet timestep="2.9100000000000137e-09" file="fields_0291.vti"/>
    <DataSet timestep="2.920000000000014e-09" file="fields_0292.vti"/>
    <DataSet timestep="2.930000000000014e-09" file="fields_0293.vti"/>
    <DataSet timestep="2.9400000000000142e-09" file="fields_0294.vti"/>
    <DataSet timestep="2.9500000000000144e-09" file="fields_0295.vti"/>
    <DataSet timestep="2.9600000000000146e-09" file="fields_0296.vti"/>
    <DataSet timestep="2.9700000000000148e-09" file="fields_0297.vti"/>
    <DataSet timestep="2.980000000000015e-09" file="fields_0298.vti"/>
    <DataSet timestep="2.990000000000015e-09" file="fields_0299.vti"/>
    <DataSet timestep="3.0000000000000153e-09" file="fields_0300.vti"/>
    <DataSet timestep="3.0100000000000155e-09" file="fields_0301.vti"/>
    <DataSet timestep="3.0200000000000156e-09" file="fields_0302.vti"/>
    <DataSet timestep="3.030000000000016e-09" file="fields_0303.vti"/>
    <DataSet timestep="3.040000000000016e-09" file="fields_0304.vti"/>
    <DataSet timestep="3.050000000000016e-09" file="fields_0305.vti"/>
    <DataSet timestep="3.0600000000000163e-09" file="fields_0306.vti"/>
    <DataSet timestep="3.0700000000000165e-09" file="fields_0307.vti"/>
    <DataSet timestep="3.0800000000000167e-09" file="fields_0308.vti"/>
    <DataSet timestep="3.090000000000017e-09" file="fields_0309.vti"/>
    <DataSet timestep="3.100000000000017e-09" file="fields_0310.vti"/>
    <DataSet timestep="3.110000000000017e-09" file="fields_0311.vti"/>
    <DataSet timestep="3.1200000000000174e-09" file="fields_0312.vti"/>
    <DataSet timestep="3.1300000000000175e-09" file="fields_0313.vti"/>
    <DataSet timestep="3.1400000000000177e-09" file="fields_0314.vti"/>
    <DataSet timestep="3.150000000000018e-09" file="fields_0315.vti"/>
    <DataSet timestep="3.160000000000018e-09" file="fields_0316.vti"/>
    <DataSet timestep="3.1700000000000182e-09" file="fields_0317.vti"/>
    <DataSet timestep="3.1800000000000184e-09" file="fields_0318.vti"/>
    <DataSet timestep="3.1900000000000186e-09" file="fields_0319.vti"/>
    <DataSet timestep="3.2000000000000187e-09" file="fields_0320.vti"/>
    <DataSet timestep="3.210000000000019e-09" file="fields_0321.vti"/>
    <DataSet timestep="3.220000000000019e-09" file="fields_0322.vti"/>
    <DataSet timestep="3.2300000000000192e-09" file="fields_0323.vti"/>
    <DataSet timestep="3.2400000000000194e-09" file="fields_0324.vti"/>
    <DataSet timestep="3.2500000000000196e-09" file="fields_0325.vti"/>
    <DataSet timestep="3.2600000000000198e-09" file="fields_0326.vti"/>
    <DataSet timestep="3.27000000000002e-09" file="fields_0327.vti"/>
    <DataSet timestep="3.28000000000002e-09" file="fields_0328.vti"/>
    <DataSet timestep="3.2900000000000203e-09" file="fields_0329.vti"/>
    <DataSet timestep="3.3000000000000205e-09" file="fields_0330.vti"/>
    <DataSet timestep="3.3100000000000206e-09" file="fields_0331.vti"/>
    <DataSet timestep="3.320000000000021e-09" file="fields_0332.vti"/>
    <DataSet timestep="3.330000000000021e-09" file="fields_0333.vti"/>
    <DataSet timestep="3.340000000000021e-09" file="fields_0334.vti"/>
    <DataSet timestep="3.3500000000000213e-09" file="fields_0335.vti"/>
    <DataSet timestep="3.3600000000000215e-09" file="fields_0336.vti"/>
    <DataSet timestep="3.3700000000000217e-09" file="fields_0337.vti"/>
    <DataSet timestep="3.380000000000022e-09" file="fields_0338.vti"/>
    <DataSet timestep="3.390000000000022e-09" file="fields_0339.vti"/>
    <DataSet timestep="3.400000000000022e-09" file="fields_0340.vti"/>
    <DataSet timestep="3.4100000000000223e-09" file="fields_0341.vti"/>
    <DataSet timestep="3.4200000000000225e-09" file="fields_0342.vti"/>
    <DataSet timestep="3.4300000000000227e-09" file="fields_0343.vti"/>
    <DataSet timestep="3.440000000000023e-09" file="fields_0344.vti"/>
    <DataSet timestep="3.450000000000023e-09" file="fields_0345.vti"/>
    <DataSet timestep="3.4600000000000232e-09" file="fields_0346.vti"/>
    <DataSet timestep="3.4700000000000234e-09" file="fields_0347.vti"/>
    <DataSet timestep="3.4800000000000236e-09" file="fields_0348.vti"/>
    <DataSet timestep="3.4900000000000237e-09" file="fields_0349.vti"/>
    <DataSet timestep="3.500000000000024e-09" file="fields_0350.vti"/>
    <DataSet timestep="3.510000000000024e-09" file="fields_0351.vti"/>
    <DataSet timestep="3.5200000000000242e-09" file="fields_0352.vti"/>
    <DataSet timestep="3.5300000000000244e-09" file="fields_0353.vti"/>
    <DataSet timestep="3.5400000000000246e-09" file="fields_0354.vti"/>
    <DataSet timestep="3.5500000000000248e-09" file="fields_0355.vti"/>
    <DataSet timestep="3.560000000000025e-09" file="fields_0356.vti"/>
    <DataSet timestep="3.570000000000025e-09" file="fields_0357.vti"/>
    <DataSet timestep="3.5800000000000253e-09" file="fields_0358.vti"/>
    <DataSet timestep="3.5900000000000254e-09" file="fields_0359.vti"/>
    <DataSet timestep="3.6000000000000256e-09" file="fields_0360.vti"/>
    <DataSet timestep="3.6100000000000258e-09" file="fields_0361.vti"/>
    <DataSet timestep="3.620000000000026e-09" file="fields_0362.vti"/>
    <DataSet timestep="3.630000000000026e-09" file="fields_0363.vti"/>
    <DataSet timestep="3.6400000000000263e-09" file="fields_0364.vti"/>
    <DataSet timestep="3.6500000000000265e-09" file="fields_0365.vti"/>
    <DataSet timestep="3.6600000000000267e-09" file="fields_0366.vti"/>
    <DataSet timestep="3.670000000000027e-09" file="fields_0367.vti"/>
    <DataSet timestep="3.680000000000027e-09" file="fields_0368.vti"/>
    <DataSet timestep="3.690000000000027e-09" file="fields_0369.vti"/>
    <DataSet timestep="3.7000000000000273e-09" file="fields_0370.vti"/>
    <DataSet timestep="3.7100000000000275e-09" file="fields_0371.vti"/>
    <DataSet timestep="3.7200000000000277e-09" file="fields_0372.vti"/>
    <DataSet timestep="3.7300000000000274e-09" file="fields_0373.vti"/>
    <DataSet timestep="3.740000000000027e-09" file="fields_0374.vti"/>
    <DataSet timestep="3.750000000000027e-09" file="fields_0375.vti"/>
    <DataSet timestep="3.760000000000027e-09" file="fields_0376.vti"/>
    <DataSet timestep="3.7700000000000265e-09" file="fields_0377.vti"/>
    <DataSet timestep="3.780000000000026e-09" file="fields_0378.vti"/>
    <DataSet timestep="3.790000000000026e-09" file="fields_0379.vti"/>
    <DataSet timestep="3.800000000000026e-09" file="fields_0380.vti"/>
    <DataSet timestep="3.8100000000000255e-09" file="fields_0381.vti"/>
    <DataSet timestep="3.820000000000025e-09" file="fields_0382.vti"/>
    <DataSet timestep="3.830000000000025e-09" file="fields_0383.vti"/>
    <DataSet timestep="3.840000000000025e-09" file="fields_0384.vti"/>
    <DataSet timestep="3.8500000000000245e-09" file="fields_0385.vti"/>
    <DataSet timestep="3.860000000000024e-09" file="fields_0386.vti"/>
    <DataSet timestep="3.870000000000024e-09" file="fields_0387.vti"/>
    <DataSet timestep="3.880000000000024e-09" file="fields_0388.vti"/>
    <DataSet timestep="3.8900000000000236e-09" file="fields_0389.vti"/>
    <DataSet timestep="3.900000000000023e-09" file="fields_0390.vti"/>
    <DataSet timestep="3.910000000000023e-09" file="fields_0391.vti"/>
    <DataSet timestep="3.920000000000023e-09" file="fields_0392.vti"/>
    <DataSet timestep="3.930000000000023e-09" file="fields_0393.vti"/>
    <DataSet timestep="3.940000000000022e-09" file="fields_0394.vti"/>
    <DataSet timestep="3.950000000000022e-09" file="fields_0395.vti"/>
    <DataSet timestep="3.960000000000022e-09" file="fields_0396.vti"/>
    <DataSet timestep="3.970000000000022e-09" file="fields_0397.vti"/>
    <DataSet timestep="3.980000000000021e-09" file="fields_0398.vti"/>
    <DataSet timestep="3.990000000000021e-09" file="fields_0399.vti"/>
    <DataSet timestep="4.000000000000021e-09" file="fields_0400.vti"/>
    <DataSet timestep="4.010000000000021e-09" file="fields_0401.vti"/>
    <DataSet timestep="4.0200000000000204e-09" file="fields_0402.vti"/>
    <DataSet timestep="4.03000000000002e-09" file="fields_0403.vti"/>
    <DataSet timestep="4.04000000000002e-09" file="fields_0404.vti"/>
    <DataSet timestep="4.05000000000002e-09" file="fields_0405.vti"/>
    <DataSet timestep="4.0600000000000195e-09" file="fields_0406.vti"/>
    <DataSet timestep="4.070000000000019e-09" file="fields_0407.vti"/>
    <DataSet timestep="4.080000000000019e-09" file="fields_0408.vti"/>
    <DataSet timestep="4.090000000000019e-09" file="fields_0409.vti"/>
    <DataSet timestep="4.1000000000000185e-09" file="fields_0410.vti"/>
    <DataSet timestep="4.110000000000018e-09" file="fields_0411.vti"/>
    <DataSet timestep="4.120000000000018e-09" file="fields_0412.vti"/>
    <DataSet timestep="4.130000000000018e-09" file="fields_0413.vti"/>
    <DataSet timestep="4.1400000000000176e-09" file="fields_0414.vti"/>
    <DataSet timestep="4.150000000000017e-09" file="fields_0415.vti"/>
    <DataSet timestep="4.160000000000017e-09" file="fields_0416.vti"/>
    <DataSet timestep="4.170000000000017e-09" file="fields_0417.vti"/>
    <DataSet timestep="4.1800000000000166e-09" file="fields_0418.vti"/>
    <DataSet timestep="4.190000000000016e-09" file="fields_0419.vti"/>
    <DataSet timestep="4.200000000000016e-09" file="fields_0420.vti"/>
    <DataSet timestep="4.210000000000016e-09" file="fields_0421.vti"/>
    <DataSet timestep="4.220000000000016e-09" file="fields_0422.vti"/>
    <DataSet timestep="4.230000000000015e-09" file="fields_0423.vti"/>
    <DataSet timestep="4.240000000000015e-09" file="fields_0424.vti"/>
    <DataSet timestep="4.250000000000015e-09" file="fields_0425.vti"/>
    <DataSet timestep="4.260000000000015e-09" file="fields_0426.vti"/>
    <DataSet timestep="4.270000000000014e-09" file="fields_0427.vti"/>
    <DataSet timestep="4.280000000000014e-09" file="fields_0428.vti"/>
    <DataSet timestep="4.290000000000014e-09" file="fields_0429.vti"/>
    <DataSet timestep="4.300000000000014e-09" file="fields_0430.vti"/>
    <DataSet timestep="4.3100000000000134e-09" file="fields_0431.vti"/>
    <DataSet timestep="4.320000000000013e-09" file="fields_0432.vti"/>
    <DataSet timestep="4.330000000000013e-09" file="fields_0433.vti"/>
    <DataSet timestep="4.340000000000013e-09" file="fields_0434.vti"/>
    <DataSet timestep="4.3500000000000125e-09" file="fields_0435.vti"/>
    <DataSet timestep="4.360000000000012e-09" file="fields_0436.vti"/>
    <DataSet timestep="4.370000000000012e-09" file="fields_0437.vti"/>
    <DataSet timestep="4.380000000000012e-09" file="fields_0438.vti"/>
    <DataSet timestep="4.3900000000000115e-09" file="fields_0439.vti"/>
    <DataSet timestep="4.400000000000011e-09" file="fields_0440.vti"/>
    <DataSet timestep="4.410000000000011e-09" file="fields_0441.vti"/>
    <DataSet timestep="4.420000000000011e-09" file="fields_0442.vti"/>
    <DataSet timestep="4.4300000000000106e-09" file="fields_0443.vti"/>
    <DataSet timestep="4.44000000000001e-09" file="fields_0444.vti"/>
    <DataSet timestep="4.45000000000001e-09" file="fields_0445.vti"/>
    <DataSet timestep="4.46000000000001e-09" file="fields_0446.vti"/>
    <DataSet timestep="4.4700000000000096e-09" file="fields_0447.vti"/>
    <DataSet timestep="4.480000000000009e-09" file="fields_0448.vti"/>
    <DataSet timestep="4.490000000000009e-09" file="fields_0449.vti"/>
    <DataSet timestep="4.500000000000009e-09" file="fields_0450.vti"/>
    <DataSet timestep="4.510000000000009e-09" file="fields_0451.vti"/>
    <DataSet timestep="4.520000000000008e-09" file="fields_0452.vti"/>
    <DataSet timestep="4.530000000000008e-09" file="fields_0453.vti"/>
    <DataSet timestep="4.540000000000008e-09" file="fields_0454.vti"/>
    <DataSet timestep="4.550000000000008e-09" file="fields_0455.vti"/>
    <DataSet timestep="4.5600000000000074e-09" file="fields_0456.vti"/>
    <DataSet timestep="4.570000000000007e-09" file="fields_0457.vti"/>
    <DataSet timestep="4.580000000000007e-09" file="fields_0458.vti"/>
    <DataSet timestep="4.590000000000007e-09" file="fields_0459.vti"/>
    <DataSet timestep="4.6000000000000064e-09" file="fields_0460.vti"/>
    <DataSet timestep="4.610000000000006e-09" file="fields_0461.vti"/>
    <DataSet timestep="4.620000000000006e-09" file="fields_0462.vti"/>
    <DataSet timestep="4.630000000000006e-09" file="fields_0463.vti"/>
    <DataSet timestep="4.6400000000000055e-09" file="fields_0464.vti"/>
    <DataSet timestep="4.650000000000005e-09" file="fields_0465.vti"/>
    <DataSet timestep="4.660000000000005e-09" file="fields_0466.vti"/>
    <DataSet timestep="4.670000000000005e-09" file="fields_0467.vti"/>
    <DataSet timestep="4.6800000000000045e-09" file="fields_0468.vti"/>
    <DataSet timestep="4.690000000000004e-09" file="fields_0469.vti"/>
    <DataSet timestep="4.700000000000004e-09" file="fields_0470.vti"/>
    <DataSet timestep="4.710000000000004e-09" file="fields_0471.vti"/>
    <DataSet timestep="4.7200000000000036e-09" file="fields_0472.vti"/>
    <DataSet timestep="4.730000000000003e-09" file="fields_0473.vti"/>
    <DataSet timestep="4.740000000000003e-09" file="fields_0474.vti"/>
    <DataSet timestep="4.750000000000003e-09" file="fields_0475.vti"/>
    <DataSet timestep="4.760000000000003e-09" file="fields_0476.vti"/>
    <DataSet timestep="4.770000000000002e-09" file="fields_0477.vti"/>
    <DataSet timestep="4.780000000000002e-09" file="fields_0478.vti"/>
    <DataSet timestep="4.790000000000002e-09" file="fields_0479.vti"/>
    <DataSet timestep="4.800000000000002e-09" file="fields_0480.vti"/>
    <DataSet timestep="4.810000000000001e-09" file="fields_0481.vti"/>
    <DataSet timestep="4.820000000000001e-09" file="fields_0482.vti"/>
    <DataSet timestep="4.830000000000001e-09" file="fields_0483.vti"/>
    <DataSet timestep="4.840000000000001e-09" file="fields_0484.vti"/>
    <DataSet timestep="4.8500000000000004e-09" file="fields_0485.vti"/>
    <DataSet timestep="4.86e-09" file="fields_0486.vti"/>
    <DataSet timestep="4.87e-09" file="fields_0487.vti"/>
    <DataSet timestep="4.88e-09" file="fields_0488.vti"/>
    <DataSet timestep="4.8899999999999995e-09" file="fields_0489.vti"/>
    <DataSet timestep="4.899999999999999e-09" file="fields_0490.vti"/>
    <DataSet timestep="4.909999999999999e-09" file="fields_0491.vti"/>
    <DataSet timestep="4.919999999999999e-09" file="fields_0492.vti"/>
    <DataSet timestep="4.9299999999999985e-09" file="fields_0493.vti"/>
    <DataSet timestep="4.939999999999998e-09" file="fields_0494.vti"/>
    <DataSet timestep="4.949999999999998e-09" file="fields_0495.vti"/>
    <DataSet timestep="4.959999999999998e-09" file="fields_0496.vti"/>
    <DataSet timestep="4.9699999999999975e-09" file="fields_0497.vti"/>
    <DataSet timestep="4.979999999999997e-09" file="fields_0498.vti"/>
    <DataSet timestep="4.989999999999997e-09" file="fields_0499.vti"/>
    <DataSet timestep="4.999999999999997e-09" file="fields_0500.vti"/>
    <DataSet timestep="5.0099999999999966e-09" file="fields_0501.vti"/>
  </Collection>
</VTKFile>
